Programmer Jedec Bit Map
Date Extracted: Mon Sep  2 16:28:53 2019

QF12278*
QP44*
QV0*
F0*
X0*
J0 0*
N VERSION P.20131013*
N DEVICE XC2C32A-6-VQ44*

Note Block 0 *
Note Block 0 ZIA *
L000000 01110111*
L000008 11111111*
L000016 01110111*
L000024 11111111*
L000032 01111110*
L000040 01111011*
L000048 01111011*
L000056 01110111*
L000064 01111011*
L000072 01111101*
L000080 01111011*
L000088 11111111*
L000096 01111011*
L000104 11111111*
L000112 01111101*
L000120 01111101*
L000128 01111101*
L000136 01111011*
L000144 11111111*
L000152 11111111*
L000160 11111111*
L000168 01111101*
L000176 11111111*
L000184 11111111*
L000192 11111111*
L000200 11111111*
L000208 11111111*
L000216 11111111*
L000224 11111111*
L000232 11111111*
L000240 11111111*
L000248 11111111*
L000256 11111111*
L000264 11111111*
L000272 11111111*
L000280 11111111*
L000288 11111111*
L000296 11111111*
L000304 11111111*
L000312 11111111*

Note Block 0 PLA AND array *
L000320 11110111111111111111111111111111111011111111111111111111111111111111111111111111*
L000400 11111011111111111111101110111111111111111111111111111111111111111111111111111111*
L000480 11110111111111111101111111111111111111111111111111111111111111111111111111111111*
L000560 11111011111111110111111111111111111111111111111111111111111111111111111111111111*
L000640 11111111111111011111111111111111111111111111111111111111111111111111111111111111*
L000720 11110111111111111111111111111101111111111111111111111111111111111111111111111111*
L000800 11111111011111111111111111111111111111111111111111111111111111111111111111111111*
L000880 11111011111111111111111111110111111111111111111111111111111111111111111111111111*
L000960 11111111111111111111101111111111111111111110111111111111111111111111111111111111*
L001040 11111011111111111111111111111111111111111111111111111111111111111111111111111111*
L001120 11111111111111111111111111111111111111111111111111111111111111111111111111111111*
L001200 11111111111111111111111111111111111111111111111111111111111111111111111111111111*
L001280 11111111111111111111111111111111111111111111111111111111111111111111111111111111*
L001360 11111111111111111111111111111111111111111111111111111111111111111111111111111111*
L001440 11111111111111111111111111111111111111111111111111111111111111111111111111111111*
L001520 11111111111111111111111111111111111111111111111111111111111111111111111111111111*
L001600 11111111111011111111101111111111111111111111111111111111111111111111111111111111*
L001680 11111111111111111111111111111111111111111111111111111111111111111111111111111111*
L001760 11111111111111111111111111111111111111111111111111111111111111111111111111111111*
L001840 10110111111111111111111111111111111111111111111111111111111111111111111111111111*
L001920 11111111111111111111111111111111111111111111111111111111111111111111111111111111*
L002000 11111111111111111111111111111111111111111111111111111111111111111111111111111111*
L002080 11111111111111111111111111111111111111111111111111111111111111111111111111111111*
L002160 11111111111111111111111111111111111111111111111111111111111111111111111111111111*
L002240 11111111111111111111111111111111111111111111111111111111111111111111111111111111*
L002320 11111111111111111111111111111111111111111111111111111111111111111111111111111111*
L002400 11111111111111111111111111111111111111111111111111111111111111111111111111111111*
L002480 11111111111111111111111111111111111111111111111111111111111111111111111111111111*
L002560 11111111111110111111111111111111101111111111111111111111111111111111111111111111*
L002640 11111111111111111111111111111111111111111111111111111111111111111111111111111111*
L002720 11111111111111111111111111111111111111111111111111111111111111111111111111111111*
L002800 11111111111101111111111111111111101111111111111111111111111111111111111111111111*
L002880 11111111111111111111111111111111111111111111111111111111111111111111111111111111*
L002960 11111111111111111111111111111111111111111111111111111111111111111111111111111111*
L003040 11111111111111111111111111111111111111111111111111111111111111111111111111111111*
L003120 11111111111111111111111111111111111111111111111111111111111111111111111111111111*
L003200 11111111111111111111111111111111111111111111111111111111111111111111111111111111*
L003280 11111111111111111111111111111111111111111111111111111111111111111111111111111111*
L003360 11111111111111111111111111111111111111111111111111111111111111111111111111111111*
L003440 11111111111111111111111111111111111111111111111111111111111111111111111111111111*
L003520 11111111111111111111111111111111111111111111111111111111111111111111111111111111*
L003600 11111111111111111111111111111111111111111111111111111111111111111111111111111111*
L003680 11111111111111111111111111111111111111111111111111111111111111111111111111111111*
L003760 11111111111111111111111111111111111111111111111111111111111111111111111111111111*
L003840 11111111111111111111111111111111111111111111111111111111111111111111111111111111*
L003920 11111111111111111111111111111111111111111111111111111111111111111111111111111111*
L004000 11111111111111111111111111111111111111111111111111111111111111111111111111111111*
L004080 11111111111111111111111111111111111111111111111111111111111111111111111111111111*
L004160 11111111111111111111111111111111111111111111111111111111111111111111111111111111*
L004240 11111111111111111111111111111111111111111111111111111111111111111111111111111111*
L004320 11111111111111111111111111111111111111111111111111111111111111111111111111111111*
L004400 11111111111111111111111111111111111111111111111111111111111111111111111111111111*
L004480 11111111111111111111111111111111111111111111111111111111111111111111111111111111*
L004560 11111111111111111111111111111111111111111111111111111111111111111111111111111111*
L004640 11111111111111111111111111111111111111111111111111111111111111111111111111111111*
L004720 11111111111111111111111111111111111111111111111111111111111111111111111111111111*

Note Block 0 PLA OR array *
L004800 0111111111111111*
L004816 0111111111111111*
L004832 1111111111011111*
L004848 1111111111011111*
L004864 1111111111111111*
L004880 1111111111111101*
L004896 1111111111111111*
L004912 1111111111111101*
L004928 1111111111101111*
L004944 1111111111101111*
L004960 1111111111111111*
L004976 1111111111111111*
L004992 1111111111111111*
L005008 1111111111111111*
L005024 1111111111111111*
L005040 1111111111111111*
L005056 1111111111111111*
L005072 1111111111111111*
L005088 1111111111111111*
L005104 1111111111111111*
L005120 1111111111111111*
L005136 1111111111111111*
L005152 1111111111111111*
L005168 1111111111111111*
L005184 1111111111111111*
L005200 1111111111111111*
L005216 1111111111111111*
L005232 1111111111111111*
L005248 1111111111111111*
L005264 1111111111111111*
L005280 1111111111111111*
L005296 1111111111111111*
L005312 1111111111111111*
L005328 1111111111111111*
L005344 1111111111111111*
L005360 1111111111111111*
L005376 1111111111111111*
L005392 1111111111111111*
L005408 1111111111111111*
L005424 1111111111111111*
L005440 1111111111111111*
L005456 1111111111111111*
L005472 1111111111111111*
L005488 1111111111111111*
L005504 1111111111111111*
L005520 1111111111111111*
L005536 1111111111111111*
L005552 1111111111111111*
L005568 1111111111111111*
L005584 1111111111111111*
L005600 1111111111111111*
L005616 1111111111111111*
L005632 1111111111111111*
L005648 1111111111111111*
L005664 1111111111111111*
L005680 1111111111111111*

Note Block 0 I/O Macrocell Configuration 27 bits *
N Aclk ClkOp Clk:2 ClkFreq R:2 P:2 RegMod:2 INz:2 FB:2 InReg St XorIn:2 RegCom Oe:4 Tm Slw Pu*
L005696 000001111001111101110000001*
L005723 111101110001110100000001100*
L005750 000001111001100100110000001*
L005777 000001111001111101010000001*
L005804 000001111000011100011111100*
L005831 000001111001111100010000001*
L005858 000001111001111100110000001*
L005885 000001111001111101010000001*
L005912 000001111001111100010000001*
L005939 000001111001111100010000001*
L005966 000001111001111100010000001*
L005993 000001111001111100010000001*
L006020 000001111001111100010000001*
L006047 111101110001111100000001100*
L006074 000001111001111100010000001*
L006101 000001111000011100011111100*

Note Block 1 *
Note Block 1 ZIA *
L006128 11111111*
L006136 11111111*
L006144 11111111*
L006152 11111111*
L006160 11111111*
L006168 11111111*
L006176 11111111*
L006184 11111111*
L006192 11111111*
L006200 11111111*
L006208 11111111*
L006216 11111111*
L006224 11111111*
L006232 11111111*
L006240 11111111*
L006248 11111111*
L006256 11111111*
L006264 11111111*
L006272 11111111*
L006280 11111111*
L006288 11111111*
L006296 11111111*
L006304 11111111*
L006312 11111111*
L006320 11111111*
L006328 11111111*
L006336 11111111*
L006344 11111111*
L006352 11111111*
L006360 11111111*
L006368 11111111*
L006376 11111111*
L006384 11111111*
L006392 11111111*
L006400 11111111*
L006408 11111111*
L006416 11111111*
L006424 11111111*
L006432 11111111*
L006440 11111111*

Note Block 1 PLA AND array *
L006448 11111111111111111111111111111111111111111111111111111111111111111111111111111111*
L006528 11111111111111111111111111111111111111111111111111111111111111111111111111111111*
L006608 11111111111111111111111111111111111111111111111111111111111111111111111111111111*
L006688 11111111111111111111111111111111111111111111111111111111111111111111111111111111*
L006768 11111111111111111111111111111111111111111111111111111111111111111111111111111111*
L006848 11111111111111111111111111111111111111111111111111111111111111111111111111111111*
L006928 11111111111111111111111111111111111111111111111111111111111111111111111111111111*
L007008 11111111111111111111111111111111111111111111111111111111111111111111111111111111*
L007088 11111111111111111111111111111111111111111111111111111111111111111111111111111111*
L007168 11111111111111111111111111111111111111111111111111111111111111111111111111111111*
L007248 11111111111111111111111111111111111111111111111111111111111111111111111111111111*
L007328 11111111111111111111111111111111111111111111111111111111111111111111111111111111*
L007408 11111111111111111111111111111111111111111111111111111111111111111111111111111111*
L007488 11111111111111111111111111111111111111111111111111111111111111111111111111111111*
L007568 11111111111111111111111111111111111111111111111111111111111111111111111111111111*
L007648 11111111111111111111111111111111111111111111111111111111111111111111111111111111*
L007728 11111111111111111111111111111111111111111111111111111111111111111111111111111111*
L007808 11111111111111111111111111111111111111111111111111111111111111111111111111111111*
L007888 11111111111111111111111111111111111111111111111111111111111111111111111111111111*
L007968 11111111111111111111111111111111111111111111111111111111111111111111111111111111*
L008048 11111111111111111111111111111111111111111111111111111111111111111111111111111111*
L008128 11111111111111111111111111111111111111111111111111111111111111111111111111111111*
L008208 11111111111111111111111111111111111111111111111111111111111111111111111111111111*
L008288 11111111111111111111111111111111111111111111111111111111111111111111111111111111*
L008368 11111111111111111111111111111111111111111111111111111111111111111111111111111111*
L008448 11111111111111111111111111111111111111111111111111111111111111111111111111111111*
L008528 11111111111111111111111111111111111111111111111111111111111111111111111111111111*
L008608 11111111111111111111111111111111111111111111111111111111111111111111111111111111*
L008688 11111111111111111111111111111111111111111111111111111111111111111111111111111111*
L008768 11111111111111111111111111111111111111111111111111111111111111111111111111111111*
L008848 11111111111111111111111111111111111111111111111111111111111111111111111111111111*
L008928 11111111111111111111111111111111111111111111111111111111111111111111111111111111*
L009008 11111111111111111111111111111111111111111111111111111111111111111111111111111111*
L009088 11111111111111111111111111111111111111111111111111111111111111111111111111111111*
L009168 11111111111111111111111111111111111111111111111111111111111111111111111111111111*
L009248 11111111111111111111111111111111111111111111111111111111111111111111111111111111*
L009328 11111111111111111111111111111111111111111111111111111111111111111111111111111111*
L009408 11111111111111111111111111111111111111111111111111111111111111111111111111111111*
L009488 11111111111111111111111111111111111111111111111111111111111111111111111111111111*
L009568 11111111111111111111111111111111111111111111111111111111111111111111111111111111*
L009648 11111111111111111111111111111111111111111111111111111111111111111111111111111111*
L009728 11111111111111111111111111111111111111111111111111111111111111111111111111111111*
L009808 11111111111111111111111111111111111111111111111111111111111111111111111111111111*
L009888 11111111111111111111111111111111111111111111111111111111111111111111111111111111*
L009968 11111111111111111111111111111111111111111111111111111111111111111111111111111111*
L010048 11111111111111111111111111111111111111111111111111111111111111111111111111111111*
L010128 11111111111111111111111111111111111111111111111111111111111111111111111111111111*
L010208 11111111111111111111111111111111111111111111111111111111111111111111111111111111*
L010288 11111111111111111111111111111111111111111111111111111111111111111111111111111111*
L010368 11111111111111111111111111111111111111111111111111111111111111111111111111111111*
L010448 11111111111111111111111111111111111111111111111111111111111111111111111111111111*
L010528 11111111111111111111111111111111111111111111111111111111111111111111111111111111*
L010608 11111111111111111111111111111111111111111111111111111111111111111111111111111111*
L010688 11111111111111111111111111111111111111111111111111111111111111111111111111111111*
L010768 11111111111111111111111111111111111111111111111111111111111111111111111111111111*
L010848 11111111111111111111111111111111111111111111111111111111111111111111111111111111*

Note Block 1 PLA OR array *
L010928 1111111111111111*
L010944 1111111111111111*
L010960 1111111111111111*
L010976 1111111111111111*
L010992 1111111111111111*
L011008 1111111111111111*
L011024 1111111111111111*
L011040 1111111111111111*
L011056 1111111111111111*
L011072 1111111111111111*
L011088 1111111111111111*
L011104 1111111111111111*
L011120 1111111111111111*
L011136 1111111111111111*
L011152 1111111111111111*
L011168 1111111111111111*
L011184 1111111111111111*
L011200 1111111111111111*
L011216 1111111111111111*
L011232 1111111111111111*
L011248 1111111111111111*
L011264 1111111111111111*
L011280 1111111111111111*
L011296 1111111111111111*
L011312 1111111111111111*
L011328 1111111111111111*
L011344 1111111111111111*
L011360 1111111111111111*
L011376 1111111111111111*
L011392 1111111111111111*
L011408 1111111111111111*
L011424 1111111111111111*
L011440 1111111111111111*
L011456 1111111111111111*
L011472 1111111111111111*
L011488 1111111111111111*
L011504 1111111111111111*
L011520 1111111111111111*
L011536 1111111111111111*
L011552 1111111111111111*
L011568 1111111111111111*
L011584 1111111111111111*
L011600 1111111111111111*
L011616 1111111111111111*
L011632 1111111111111111*
L011648 1111111111111111*
L011664 1111111111111111*
L011680 1111111111111111*
L011696 1111111111111111*
L011712 1111111111111111*
L011728 1111111111111111*
L011744 1111111111111111*
L011760 1111111111111111*
L011776 1111111111111111*
L011792 1111111111111111*
L011808 1111111111111111*

Note Block 1 I/O Macrocell Configuration 27 bits *
N Aclk ClkOp Clk:2 ClkFreq R:2 P:2 RegMod:2 INz:2 FB:2 InReg St XorIn:2 RegCom Oe:4 Tm Slw Pu*
L011824 000001111000011100011111100*
L011851 000001111000011100011111100*
L011878 000001111000011100011111100*
L011905 000001111000011100011111100*
L011932 000001111000011100011111100*
L011959 000001111000011100011111100*
L011986 000001111001111110011111100*
L012013 000001111001111110011111100*
L012040 000001111000011100011111100*
L012067 000001111001111110011111100*
L012094 000001111001111110011111100*
L012121 000001111001111110011111100*
L012148 000001111000011100011111100*
L012175 000001111000011100011111100*
L012202 000001111000011100011111100*
L012229 000001111000011100011111100*

Note Globals *
Note Global Clock Mux *
L012256 000*

Note Global Set/Reset Mux *
L012259 00*

Note Global OE Mux *
L012261 11111111*

Note Global Termination *
L012269 0*

Note Output Voltage Standard for IOB *
L012270 1*

Note Input Voltage Standard for IOB *
L012271 1*

Note Dedicated Input Mode *
L012272 01*

Note I/O Bank 0 Vcci *
L012274 0*

Note I/O Bank 0 Vcco *
L012275 1*

Note I/O Bank 1 Vcci *
L012276 0*

Note I/O Bank 1 Vcco *
L012277 0*

CB8A8*
A384
