47	47	0	0	0	0	0	0	0	0	0	0	00	
48	48	0	0	0	0	0	0	0	0	0	0	00	
49	49	0	0	0	0	0	0	0	0	0	0	00	

50	50	1	0	1	0	1	0	1	0	1	0	55	
51	51	1	0	1	0	1	0	1	0	1	0	55	
52	52	1	0	1	0	1	0	1	0	1	0	55	
53	53	1	0	1	0	1	0	1	0	1	0	55	
54	54	1	0	1	0	1	0	1	0	1	0	55	
55	55	1	0	1	0	1	0	1	0	1	0	55	
56	56	1	0	1	0	1	0	1	0	1	0	55	
57	57	1	0	1	0	1	0	1	1	1	0	D5	
58	58	1	1	1	1	1	1	1	1	1	0	FF	
59	59	1	1	1	1	1	1	1	1	1	0	FF	
60	60	1	1	1	1	1	1	1	1	1	0	FF	
61	61	1	1	1	1	1	1	1	1	1	0	FF	
62	62	1	1	1	1	1	1	1	1	1	0	FF	
63	63	1	1	1	1	1	1	1	1	1	0	FF	
64	64	0	0	0	0	0	0	0	0	1	0	00	
65	65	0	1	1	1	0	0	0	0	1	0	0E	
66	66	0	0	1	1	0	0	0	0	1	0	0C	
67	67	0	0	0	0	1	0	1	1	1	0	D0	
68	68	1	0	1	0	1	1	0	1	1	0	B5	
69	69	1	1	1	1	1	0	0	0	1	0	1F	
70	70	0	0	0	1	0	0	0	0	1	0	08	
71	71	0	1	1	0	0	0	0	0	1	0	06	
72	72	0	0	0	0	0	0	0	0	1	0	00	
73	73	1	0	0	0	0	0	0	0	1	0	01	
74	74	0	0	0	1	0	0	0	0	1	0	08	
75	75	0	0	0	0	0	0	0	0	1	0	00	
76	76	0	1	1	0	0	0	0	0	1	0	06	
77	77	0	0	1	0	0	0	0	0	1	0	04	
78	78	0	0	0	0	0	0	0	0	1	0	00	
79	79	1	0	0	0	0	0	0	0	1	0	01	
80	80	0	0	0	0	0	0	0	0	1	0	00	
81	81	0	1	1	1	0	0	0	0	1	0	0E	
82	82	0	0	1	1	0	0	0	0	1	0	0C	
83	83	0	0	0	0	1	0	1	1	1	0	D0	
84	84	1	0	1	0	1	1	0	1	1	0	B5	
85	85	1	1	1	1	1	0	0	0	1	0	1F	
86	86	0	1	0	1	0	0	0	0	1	0	0A	
87	87	0	1	0	1	0	0	0	0	1	0	0A	
88	88	0	0	0	0	0	0	0	0	1	0	00	
89	89	0	0	1	0	0	1	1	0	1	0	64	
90	90	0	0	0	0	0	0	0	0	1	0	00	
91	91	0	0	0	0	0	0	0	0	1	0	00	
92	92	0	0	0	0	0	0	0	0	1	0	00	
93	93	0	0	0	0	0	0	0	0	1	0	00	
94	94	0	0	0	0	0	0	0	0	1	0	00	
95	95	0	0	0	0	0	0	0	0	1	0	00	
96	96	0	1	0	1	0	0	0	0	1	0	0A	
97	97	0	1	0	1	0	0	0	0	1	0	0A	
98	98	0	0	0	0	0	0	0	0	1	0	00	
99	99	1	0	0	0	0	0	0	0	1	0	01	
100	100	0	0	0	0	0	0	0	0	1	0	00	
101	101	0	0	0	0	0	0	0	0	1	0	00	
102	102	0	0	0	0	0	0	0	0	1	0	00	
103	103	0	0	0	0	0	0	0	0	1	0	00	
104	104	0	0	0	0	0	0	0	0	1	0	00	
105	105	0	0	0	0	0	0	0	0	1	0	00	
106	106	0	0	0	0	0	0	0	0	1	0	00	
107	107	0	0	0	0	0	0	0	0	1	0	00	
108	108	0	0	0	0	0	0	0	0	1	0	00	
109	109	0	0	0	0	0	0	0	0	1	0	00	
110	110	0	0	0	0	0	0	0	0	1	0	00	
111	111	0	0	0	0	0	0	0	0	1	0	00	
112	112	0	0	0	0	0	0	0	0	1	0	00	
113	113	0	0	0	0	0	0	0	0	1	0	00	
114	114	0	0	0	0	0	0	0	0	1	0	00	
115	115	0	0	0	0	0	0	0	0	1	0	00	
116	116	0	0	0	0	0	0	0	0	1	0	00	
117	117	0	0	0	0	0	0	0	0	1	0	00	
118	118	1	1	1	0	0	1	1	0	1	0	67	
119	119	1	1	1	0	0	0	1	0	1	0	47	
120	120	1	1	0	0	0	0	1	0	1	0	43	
121	121	0	1	0	1	0	1	1	0	1	0	6A	

122	122	0	0	0	0	0	0	0	0	0	0	00	
123	123	0	0	0	0	0	0	0	0	0	0	00	
