M48
;Layer_Color=9474304
;FILE_FORMAT=4:4
METRIC,LZ
;TYPE=PLATED
T1F00S00C0.1500
T2F00S00C0.4500
T3F00S00C0.5000
T4F00S00C0.8000
T5F00S00C0.9000
T6F00S00C1.0000
T7F00S00C1.0500
T8F00S00C1.2000
T9F00S00C1.3000
T10F00S00C2.7000
%
T01
X01256372Y00379628
X01256372Y00386128
X01256372Y00392628
X0143764Y0038989
X01440128Y00396622
X0143256Y0038354
X01435318Y00376972
X0144145Y0037338
X01438628Y00338122
X01438628Y00331622
X01438628Y00325122
X01438622Y00318622
X0141859Y0030988
X0141732Y0030099
X0154973Y00357622
Y00364122
X0164125Y003665
Y0035625
X0165608Y0041402
Y0042418
X01639Y004705
X0163875Y004815
X016465Y0054875
X01653524Y0054925
X01544188Y00479122
X01544128Y00472622
X01551552Y00460128
X01551702Y00453628
X0155194Y00447128
Y00440628
X01545938Y00421162
X01545878Y00414662
X0150749Y0042291
X014732Y0042545
X0144025Y004215
X014351Y0042799
X01440128Y00403122
X0137525Y004185
Y00425
X0125625Y0044475
X0125775Y00451128
X0125625Y0045775
Y0046425
X01256372Y00399128
X01213Y0055825
Y0056475
Y0057125
Y0057775
Y0058425
Y0059075
Y0061025
Y0061675
Y0062325
Y0062975
Y0063625
Y0064275
Y0068525
Y0069175
Y0069825
Y0070475
Y0071125
Y0071775
Y0073725
Y0074375
Y0075025
Y0075675
Y0076325
Y0076975
X0114375
Y0076325
Y0075675
Y0075025
X0106465Y007574
X01065Y006749
X0112649Y0066294
X0114375Y0064275
Y0063625
Y0062975
Y0062325
Y0056475
Y0055825
X01055322Y00567642
X0104648Y0056896
X00946Y005805
X0094975Y0058925
X0096139Y0063905
X0096901Y0063373
X00869792Y00644031
X008645Y0065075
X007585Y0074775
X0075275Y0075329
X0066802Y0066675
X00668068Y00659178
X0075311Y0054634
X0075819Y0054102
X0061341Y0050292
X00606008Y00505242
X006705Y0041926
X0067925Y0042433
X0070104Y0081534
X0070866Y0082066
X00686435Y00929005
X00691515Y0093828
X006225Y0099075
X0062775Y0099625
X006096Y01034216
X0060452Y010414
X00638781Y01080303
X00635031Y01086803
X0072575Y01077
X0103775Y008344
X0120142Y0083439
X0119253Y0082042
X012055Y00905
T02
X015035Y0034475
X0114125Y00592
X0114175Y0060875
X0114225Y00719
T03
X0049Y003945
X00505
X0052
X00535
X0055
X014265Y00364122
X0154432Y0037719
X016995Y00332
X017725Y00386
X0176657Y0045339
X01773Y0051475
X01787
X01801
X01815
X01829
X0183Y0053475
X01816
X01802
X01788
X01774
X0176
X01746
X01732
X01718Y0053475
X01704Y0053475
X0169
X01676Y0053475
X01675Y0055475
X01689
X01703
X01717
X01731
X01745
X01759
X01773
X01787
X01801
X01815
X01829
X0183Y0057475
X01816
X01802
X01788
X01774
X0176
X01746
X01732
X01718Y0057475
X01704Y0057475
X0169
X01676
X01675Y0059475
X01689
X01703
X01717
X01731
X01745
X01759
X01773
X01787
X01801
X01815
X01829
X0183Y0061475
X01816
X01802
X01788
X01774
X0176
X01746
X01732
X01718Y0061475
X01704Y0061475
X0169
X01676
X01675Y0063475
X01689
X01703
X01717
X01731
X01745
X01759
X01773
X01787
X01801
X01815
X01829
X0183Y0065475
X01816
X01802
X01788
X01774
X0176
X01746
X01732
X01718
X01704
X0169
X01676
X01675Y0067975
X01689
X01703
X01717
X01731
X01745
X01759
X01773
X01787
X01801
X01815
X01829
X0183Y0069975
X01816
X01802
X01788
X01774
X0176
X01746
X01732
X01718Y0069975
X01704Y0069975
X0169
X01676Y0069975
X01675Y0071975
X01689
X01703
X01717
X01731
X01745
X01759
X01773
X01787
X01801
X01815
X01829
X0183Y0073975
X01816
X01802
X01788
X01774
X0176
X01746
X01732
X01718Y0073975
X01704Y0073975
X0169
X01676
X01675Y0075975
X01689
X01703
X01717
X01731
X01745
X01759
X01773
X01787
X01801
X01815
X01829
X0183Y0077975
X01816
X01802
X01788
X01774
X0176
X01746
X01732
X01718Y0077975
X01704Y0077975
X0169
X01676
X01675Y0051475
X01689
X01703
X01717
X01731
X01745
X01759
X01706Y0040675
X01539Y00492
X015025Y0050025
X0149Y005
X0147725
X01503122Y00459622
X0142325Y00472
X0116713Y0058674
X01164Y0061275
X011725Y00716
X0116975Y0074475
X0114425Y0073575
X01058838Y00663322
X010545Y0061725
X0096675Y0069175
X0094475
X00915Y00726
X0085598Y0058928
X0075184Y006731
X0055Y006945
X00535
X0052
X00505
X0049
Y00713
X00505
X0052
X00535
X0055
Y007315
X00535
X0052
X00505
X0049
Y0075
X00505
X0052
X00535
X0055
Y006
X00535
X0052
X00505
X0049
Y005815
X00505
X0052
X00535
X0055
Y00563
X00535
X0052
X00505
X0049
Y005445
X00505
X0052
X00535
X0055
Y0045
X00535
X0052
X00505
X0049
Y004315
X00505
X0052
X00535
X0055
Y00413
X00535
X0052
X00505
X0049
X0033125Y0095425
Y0097275
Y00991
X00442Y0097275
X005145Y009545
Y00992
X0052Y01045
X00505
X0049
Y010635
X00505
X0052
X00535
X0055
Y01045
X00535
Y01082
X0055
Y011005
X00535
X0052
X00505
X0049
Y01082
X00505
X0052
Y009
X00505
X0049
Y008815
X00505
X0052
X00535
X0055
Y009
X00535
Y00863
X0055
Y008445
X00535
X0052
X00505
X0049
Y00863
X00505
X0052
X00765Y0109
X00879Y01132
X00893
X0088773Y0114046
X00893Y01149
X00879
X0087249Y0114046
X0088773Y011811
X0090043
X0091313Y011684
X0096266Y0118618
X0105664Y011811
X0107061
X0108204Y0116586
X0106191Y0114646
X0105664Y0113792
X0106191Y0112946
X0104791
X010414Y0113792
X0104791Y0114646
X0113411Y0118745
X0122936Y011811
X0124333
X012573Y0116586
X0123317Y0114603
X012279Y0113749
X0123317Y0112903
X0121917
X0121266Y0113749
X0121917Y0114603
X0130429Y0118745
X0138598Y01189918
Y01174678
X0144694Y01173408
X0144694Y01189918
X015847Y011603
X0167Y0113
X01695
Y01105
X0167
Y01075
Y0105
X01695
Y01075
X0175
Y0105
X01775
Y01075
Y01105
Y0113
X0175
Y01105
X01746Y0081975
X0176
X01774
X01788
X01802
X01816
X0183
X01829Y0079975
X01815
X01801
X01787
X01773
X01759
X01745
X01731
X01717
X01703
X01689
X01675
X01676Y0081975
X0169
X01704
X01718
X01732
X0144694Y01206428
X0138598Y01205158
X0130429Y0120523
X012446
X0113411
X0107061Y0120396
X0096266Y0120523
X0090043
T04
X01484332Y00947211
X01547332Y00947711
X01362542Y01153121
X01325712
T05
X0073152Y0046228
X0075692
X0078232
T06
X0154439Y0029625
X0156725
X01602Y0060625
X0101225Y0061125
X010125Y00595
X0123575Y00904
X0126375Y0090425
T07
X00473Y003945
Y00413
Y004315
Y0045
Y005445
Y00563
Y005815
Y006
Y006945
Y00713
Y007315
Y0075
Y008445
Y00863
Y008815
Y009
Y01045
Y010635
Y01082
Y011005
T08
X008375Y00969
X008875
X008625Y00994
X008875Y01019
X008375
X009125Y00994
X0100584Y0096901
X0105584
X0103084Y0099401
X0105584Y0101901
X0100584
X0108084Y0099401
X0118237Y0096901
Y0101901
X0120737Y0099401
X0123237Y0096901
Y0101901
X0125737Y0099401
X0142113Y0106506
Y0111506
X0144613Y0109006
X0147113Y0106506
Y0111506
X0144613Y0104006
X0172Y00947
X0177
X01745Y00922
X0172Y00897
X0177
X01695Y00922
T09
X0028Y003745
X003Y004745
X0028Y005245
X003Y006245
X0028Y006745
X003Y007745
X0028Y008245
X003Y009245
X0028Y01025
X003Y01125
T10
X002857Y003055
Y011945
M30
