--------------------------------------------------------------------------------
--  Paul Scherrer Institut
--  www.psi.ch
--------------------------------------------------------------------------------
--
--  Unit :  <Design Unit Name>
--
--  Project :  <Project Name> (<Mentor Folder Number>)
--
--  PCB  :  <Mentor PCB Number> <PCB Name> ("-" for generic code)
--  Part :  <Vendor> <Part Family> <Part Number> ("-" for generic code)
--
--  Tool Version :  <Tool Version Number> (Version the code was testet with)
--
--  Author  :  <Author Name>
--  Created :  <Creation Date> <Creation Time>
--
--  Description :  
--    <Description of the functionality of the code inside this file>
--
--------------------------------------------------------------------------------
--------------------------------------------------------------------------------
