<?xml version="1.0" encoding="UTF-8"?>
<!DOCTYPE svg PUBLIC "-//W3C//DTD SVG 1.0//EN" "http://www.w3.org/TR/SVG/DTD/svg10.dtd">
<svg width="280" height="716">
  <defs>
    <g id="XIL_BifLabel">
      <rect x="0" y="0" rx="3" ry="3" width="32" height="16" style="fill:#990066; stroke:black; stroke-width:1"/>
    </g>
    <g id="XIL_busconn_TARGET">
      <circle cx="12" cy="12" r="12" style="fill:#CC3399; stroke:#990066; stroke-width:1"/>
      <circle cx="12.5" cy="12" r="7" style="fill:#990066; stroke:none;"/>
    </g>
    <g id="XIL_busconn_INITIATOR">
      <rect x="0" y="0" width="24" height="24" style="fill:#CC3399; stroke:#990066; stroke-width:1"/>
      <rect x="5.5" y="5" width="14" height="14" style="fill:#990066; stroke:none;"/>
    </g>
    <g id="LMB_BifLabel">
      <rect x="0" y="0" rx="3" ry="3" width="32" height="16" style="fill:#7777FF; stroke:black; stroke-width:1"/>
    </g>
    <g id="LMB_busconn_SLAVE">
      <circle cx="12" cy="12" r="12" style="fill:#DDDDFF; stroke:#7777FF; stroke-width:1"/>
      <circle cx="12.5" cy="12" r="7" style="fill:#7777FF; stroke:none;"/>
    </g>
    <g id="LMB_busconn_MASTER">
      <rect x="0" y="0" width="24" height="24" style="fill:#DDDDFF; stroke:#7777FF; stroke-width:1"/>
      <rect x="5.5" y="5" width="14" height="14" style="fill:#7777FF; stroke:none;"/>
    </g>
    <g id="PLBV46_BifLabel">
      <rect x="0" y="0" rx="3" ry="3" width="32" height="16" style="fill:#BB9955; stroke:black; stroke-width:1"/>
    </g>
    <g id="PLBV46_busconn_SLAVE">
      <circle cx="12" cy="12" r="12" style="fill:#FFFFDD; stroke:#BB9955; stroke-width:1"/>
      <circle cx="12.5" cy="12" r="7" style="fill:#BB9955; stroke:none;"/>
    </g>
    <g id="PLBV46_busconn_MASTER">
      <rect x="0" y="0" width="24" height="24" style="fill:#FFFFDD; stroke:#BB9955; stroke-width:1"/>
      <rect x="5.5" y="5" width="14" height="14" style="fill:#BB9955; stroke:none;"/>
    </g>
    <g id="USER_BifLabel">
      <rect x="0" y="0" rx="3" ry="3" width="32" height="16" style="fill:#009999; stroke:black; stroke-width:1"/>
    </g>
    <g id="USER_busconn_TARGET">
      <circle cx="12" cy="12" r="12" style="fill:#00CCCC; stroke:#009999; stroke-width:1"/>
      <circle cx="12.5" cy="12" r="7" style="fill:#009999; stroke:none;"/>
    </g>
    <g id="USER_busconn_INITIATOR">
      <rect x="0" y="0" width="24" height="24" style="fill:#00CCCC; stroke:#009999; stroke-width:1"/>
      <rect x="5.5" y="5" width="14" height="14" style="fill:#009999; stroke:none;"/>
    </g>
    <g id="KEY_BifLabel">
      <rect x="0" y="0" rx="3" ry="3" width="32" height="16" style="fill:#444444; stroke:black; stroke-width:1"/>
    </g>
    <g id="KEY_busconn_SLAVE">
      <circle cx="12" cy="12" r="12" style="fill:#888888; stroke:#444444; stroke-width:1"/>
      <circle cx="12.5" cy="12" r="7" style="fill:#444444; stroke:none;"/>
    </g>
    <g id="KEY_busconn_MASTER">
      <rect x="0" y="0" width="24" height="24" style="fill:#888888; stroke:#444444; stroke-width:1"/>
      <rect x="5.5" y="5" width="14" height="14" style="fill:#444444; stroke:none;"/>
    </g>
    <g id="KEY_busconn_MASTER_SLAVE">
      <circle cx="12" cy="12" r="12" style="fill:#888888; stroke:#444444; stroke-width:1"/>
      <circle cx="12.5" cy="12" r="7" style="fill:#444444; stroke:none;"/>
      <rect x="0" y="12" width="24" height="12" style="fill:#888888; stroke:#444444; stroke-width:1"/>
      <rect x="5.5" y="12" width="14" height="7" style="fill:#444444; stroke:none;"/>
    </g>
    <g id="KEY_busconn_TARGET">
      <circle cx="12" cy="12" r="12" style="fill:#888888; stroke:#444444; stroke-width:1"/>
      <circle cx="12.5" cy="12" r="7" style="fill:#444444; stroke:none;"/>
    </g>
    <g id="KEY_busconn_INITIATOR">
      <rect x="0" y="0" width="24" height="24" style="fill:#888888; stroke:#444444; stroke-width:1"/>
      <rect x="5.5" y="5" width="14" height="14" style="fill:#444444; stroke:none;"/>
    </g>
    <g id="KEY_busconn_MONITOR">
      <rect x="0" y="0.5" width="24" height="7" style="fill:#444444; stroke:none;"/>
      <rect x="0" y="16" width="24" height="7" style="fill:#444444; stroke:none;"/>
    </g>
    <g id="KEY_busconn_USER">
      <circle cx="12" cy="12" r="12" style="fill:#888888; stroke:#444444; stroke-width:1"/>
      <circle cx="12.5" cy="12" r="7" style="fill:#444444; stroke:none;"/>
    </g>
    <g id="KEY_busconn_TRANSPARENT">
      <circle cx="12" cy="12" r="12" style="fill:#FFFFFF; stroke:#444444; stroke-width:1"/>
      <circle cx="12.5" cy="12" r="7" style="fill:#FFFFFF; stroke:none;"/>
    </g>
    <g id="HCurve" overflow="visible">
      <path d="m 0  0,      a 16 16, 0,0,0, 32,0,     z" style="fill:#F0F0F0;fill-opacity:1;stroke:black;stroke-width:1.5"/>
      <line x1="0" y1="0" x2="32" y2="0" style="stroke:#F0F0F0;stroke-width:3"/>
    </g>
    <g id="IPD_StandardBody">
      <rect x="0" y="0" width="276" height="712" style="fill:#F0F0F0;fill-opacity: 1.0; stroke:#000000; stroke-width:1"/>
      <rect x="48" y="16" width="180" height="680" style="fill:#FFFFFF; fill-opacity: 1.0; stroke:#000000; stroke-width:1.5"/>
      <use xmlns:xlink="http://www.w3.org/1999/xlink" x="122" y="16" xlink:href="#HCurve"/>
    </g>
    <g id="IPD_PORT">
      <rect width="8" height="8" style="fill:#888888;stroke-width:1;stroke:black;"/>
    </g>
    <g id="IPD_SPort">
      <line x1="0" y1="0" x2="8" y2="0" style="stroke:#888888;stroke-width:2;stroke-opacity:1"/>
    </g>
    <g id="IPD_PortClk">
      <line x1="0" y1="0" x2="7" y2="3" style="stroke:#000000;stroke-width:1;stroke-opacity:1"/>
      <line x1="7" y1="3" x2="0" y2="7" style="stroke:#000000;stroke-width:1;stroke-opacity:1"/>
    </g>
  </defs>
  <use xmlns:xlink="http://www.w3.org/1999/xlink" x="0" y="0" xlink:href="#IPD_StandardBody"/>
  <text x="138" y="360" fill="#AA0017" stroke="none" font-size="8pt" font-style="italic" font-weight="bold" text-anchor="middle" font-family="Verdana Arial Helvetica san-serif">wd2_drs4_read_ctrl</text>
  <text x="138" y="372" fill="#000000" stroke="none" font-size="8pt" font-style="italic" font-weight="bold" text-anchor="middle" font-family="Courier Arial Helvetica san-serif">wd2_drs4_read_ctrl_0</text>
  <use xmlns:xlink="http://www.w3.org/1999/xlink" x="40" y="24" xlink:href="#IPD_SPort"/>
  <text x="60" y="30" fill="#000000" stroke="none" font-size="8pt" font-style="normal" font-weight="bold" text-anchor="middle" font-family="Verdana Arial Helvetica san-serif">1</text>
  <use xmlns:xlink="http://www.w3.org/1999/xlink" x="40" y="48" xlink:href="#IPD_SPort"/>
  <text x="60" y="54" fill="#000000" stroke="none" font-size="8pt" font-style="normal" font-weight="bold" text-anchor="middle" font-family="Verdana Arial Helvetica san-serif">2</text>
  <use xmlns:xlink="http://www.w3.org/1999/xlink" x="40" y="72" xlink:href="#IPD_SPort"/>
  <text x="60" y="78" fill="#000000" stroke="none" font-size="8pt" font-style="normal" font-weight="bold" text-anchor="middle" font-family="Verdana Arial Helvetica san-serif">4</text>
  <use xmlns:xlink="http://www.w3.org/1999/xlink" x="40" y="96" xlink:href="#IPD_SPort"/>
  <text x="60" y="102" fill="#000000" stroke="none" font-size="8pt" font-style="normal" font-weight="bold" text-anchor="middle" font-family="Verdana Arial Helvetica san-serif">5</text>
  <use xmlns:xlink="http://www.w3.org/1999/xlink" x="40" y="120" xlink:href="#IPD_SPort"/>
  <text x="60" y="126" fill="#000000" stroke="none" font-size="8pt" font-style="normal" font-weight="bold" text-anchor="middle" font-family="Verdana Arial Helvetica san-serif">6</text>
  <use xmlns:xlink="http://www.w3.org/1999/xlink" x="40" y="144" xlink:href="#IPD_SPort"/>
  <text x="60" y="150" fill="#000000" stroke="none" font-size="8pt" font-style="normal" font-weight="bold" text-anchor="middle" font-family="Verdana Arial Helvetica san-serif">7</text>
  <use xmlns:xlink="http://www.w3.org/1999/xlink" x="40" y="168" xlink:href="#IPD_SPort"/>
  <text x="60" y="174" fill="#000000" stroke="none" font-size="8pt" font-style="normal" font-weight="bold" text-anchor="middle" font-family="Verdana Arial Helvetica san-serif">8</text>
  <use xmlns:xlink="http://www.w3.org/1999/xlink" x="40" y="192" xlink:href="#IPD_SPort"/>
  <text x="60" y="198" fill="#000000" stroke="none" font-size="8pt" font-style="normal" font-weight="bold" text-anchor="middle" font-family="Verdana Arial Helvetica san-serif">9</text>
  <use xmlns:xlink="http://www.w3.org/1999/xlink" x="40" y="216" xlink:href="#IPD_SPort"/>
  <text x="60" y="222" fill="#000000" stroke="none" font-size="8pt" font-style="normal" font-weight="bold" text-anchor="middle" font-family="Verdana Arial Helvetica san-serif">10</text>
  <use xmlns:xlink="http://www.w3.org/1999/xlink" x="40" y="240" xlink:href="#IPD_SPort"/>
  <text x="60" y="246" fill="#000000" stroke="none" font-size="8pt" font-style="normal" font-weight="bold" text-anchor="middle" font-family="Verdana Arial Helvetica san-serif">11</text>
  <use xmlns:xlink="http://www.w3.org/1999/xlink" x="40" y="264" xlink:href="#IPD_SPort"/>
  <text x="60" y="270" fill="#000000" stroke="none" font-size="8pt" font-style="normal" font-weight="bold" text-anchor="middle" font-family="Verdana Arial Helvetica san-serif">13</text>
  <use xmlns:xlink="http://www.w3.org/1999/xlink" x="40" y="288" xlink:href="#IPD_SPort"/>
  <text x="60" y="294" fill="#000000" stroke="none" font-size="8pt" font-style="normal" font-weight="bold" text-anchor="middle" font-family="Verdana Arial Helvetica san-serif">14</text>
  <use xmlns:xlink="http://www.w3.org/1999/xlink" x="40" y="312" xlink:href="#IPD_SPort"/>
  <text x="60" y="318" fill="#000000" stroke="none" font-size="8pt" font-style="normal" font-weight="bold" text-anchor="middle" font-family="Verdana Arial Helvetica san-serif">17</text>
  <use xmlns:xlink="http://www.w3.org/1999/xlink" x="40" y="336" xlink:href="#IPD_SPort"/>
  <text x="60" y="342" fill="#000000" stroke="none" font-size="8pt" font-style="normal" font-weight="bold" text-anchor="middle" font-family="Verdana Arial Helvetica san-serif">18</text>
  <use xmlns:xlink="http://www.w3.org/1999/xlink" x="40" y="360" xlink:href="#IPD_SPort"/>
  <text x="60" y="366" fill="#000000" stroke="none" font-size="8pt" font-style="normal" font-weight="bold" text-anchor="middle" font-family="Verdana Arial Helvetica san-serif">19</text>
  <use xmlns:xlink="http://www.w3.org/1999/xlink" x="40" y="384" xlink:href="#IPD_SPort"/>
  <text x="60" y="390" fill="#000000" stroke="none" font-size="8pt" font-style="normal" font-weight="bold" text-anchor="middle" font-family="Verdana Arial Helvetica san-serif">20</text>
  <use xmlns:xlink="http://www.w3.org/1999/xlink" x="40" y="408" xlink:href="#IPD_SPort"/>
  <text x="60" y="414" fill="#000000" stroke="none" font-size="8pt" font-style="normal" font-weight="bold" text-anchor="middle" font-family="Verdana Arial Helvetica san-serif">21</text>
  <use xmlns:xlink="http://www.w3.org/1999/xlink" x="40" y="432" xlink:href="#IPD_SPort"/>
  <text x="60" y="438" fill="#000000" stroke="none" font-size="8pt" font-style="normal" font-weight="bold" text-anchor="middle" font-family="Verdana Arial Helvetica san-serif">23</text>
  <use xmlns:xlink="http://www.w3.org/1999/xlink" x="40" y="456" xlink:href="#IPD_SPort"/>
  <text x="60" y="462" fill="#000000" stroke="none" font-size="8pt" font-style="normal" font-weight="bold" text-anchor="middle" font-family="Verdana Arial Helvetica san-serif">29</text>
  <use xmlns:xlink="http://www.w3.org/1999/xlink" x="40" y="480" xlink:href="#IPD_SPort"/>
  <text x="60" y="486" fill="#000000" stroke="none" font-size="8pt" font-style="normal" font-weight="bold" text-anchor="middle" font-family="Verdana Arial Helvetica san-serif">30</text>
  <use xmlns:xlink="http://www.w3.org/1999/xlink" x="40" y="504" xlink:href="#IPD_SPort"/>
  <text x="60" y="510" fill="#000000" stroke="none" font-size="8pt" font-style="normal" font-weight="bold" text-anchor="middle" font-family="Verdana Arial Helvetica san-serif">32</text>
  <use xmlns:xlink="http://www.w3.org/1999/xlink" x="40" y="528" xlink:href="#IPD_SPort"/>
  <text x="60" y="534" fill="#000000" stroke="none" font-size="8pt" font-style="normal" font-weight="bold" text-anchor="middle" font-family="Verdana Arial Helvetica san-serif">36</text>
  <use xmlns:xlink="http://www.w3.org/1999/xlink" x="40" y="552" xlink:href="#IPD_SPort"/>
  <text x="60" y="558" fill="#000000" stroke="none" font-size="8pt" font-style="normal" font-weight="bold" text-anchor="middle" font-family="Verdana Arial Helvetica san-serif">37</text>
  <use xmlns:xlink="http://www.w3.org/1999/xlink" x="40" y="576" xlink:href="#IPD_SPort"/>
  <text x="60" y="582" fill="#000000" stroke="none" font-size="8pt" font-style="normal" font-weight="bold" text-anchor="middle" font-family="Verdana Arial Helvetica san-serif">38</text>
  <use xmlns:xlink="http://www.w3.org/1999/xlink" x="40" y="600" xlink:href="#IPD_SPort"/>
  <text x="60" y="606" fill="#000000" stroke="none" font-size="8pt" font-style="normal" font-weight="bold" text-anchor="middle" font-family="Verdana Arial Helvetica san-serif">39</text>
  <use xmlns:xlink="http://www.w3.org/1999/xlink" x="40" y="624" xlink:href="#IPD_SPort"/>
  <use xmlns:xlink="http://www.w3.org/1999/xlink" x="48" y="622" xlink:href="#IPD_PortClk"/>
  <text x="60" y="630" fill="#000000" stroke="none" font-size="8pt" font-style="normal" font-weight="bold" text-anchor="middle" font-family="Verdana Arial Helvetica san-serif">40</text>
  <use xmlns:xlink="http://www.w3.org/1999/xlink" x="40" y="648" xlink:href="#IPD_SPort"/>
  <use xmlns:xlink="http://www.w3.org/1999/xlink" x="48" y="646" xlink:href="#IPD_PortClk"/>
  <text x="60" y="654" fill="#000000" stroke="none" font-size="8pt" font-style="normal" font-weight="bold" text-anchor="middle" font-family="Verdana Arial Helvetica san-serif">41</text>
  <use xmlns:xlink="http://www.w3.org/1999/xlink" x="40" y="672" xlink:href="#IPD_SPort"/>
  <use xmlns:xlink="http://www.w3.org/1999/xlink" x="48" y="670" xlink:href="#IPD_PortClk"/>
  <text x="60" y="678" fill="#000000" stroke="none" font-size="8pt" font-style="normal" font-weight="bold" text-anchor="middle" font-family="Verdana Arial Helvetica san-serif">42</text>
  <use xmlns:xlink="http://www.w3.org/1999/xlink" x="228" y="24" xlink:href="#IPD_SPort"/>
  <text x="216" y="30" fill="#000000" stroke="none" font-size="8pt" font-style="normal" font-weight="bold" text-anchor="middle" font-family="Verdana Arial Helvetica san-serif">0</text>
  <use xmlns:xlink="http://www.w3.org/1999/xlink" x="228" y="48" xlink:href="#IPD_SPort"/>
  <text x="216" y="54" fill="#000000" stroke="none" font-size="8pt" font-style="normal" font-weight="bold" text-anchor="middle" font-family="Verdana Arial Helvetica san-serif">3</text>
  <use xmlns:xlink="http://www.w3.org/1999/xlink" x="228" y="72" xlink:href="#IPD_SPort"/>
  <text x="216" y="78" fill="#000000" stroke="none" font-size="8pt" font-style="normal" font-weight="bold" text-anchor="middle" font-family="Verdana Arial Helvetica san-serif">12</text>
  <use xmlns:xlink="http://www.w3.org/1999/xlink" x="228" y="96" xlink:href="#IPD_SPort"/>
  <text x="216" y="102" fill="#000000" stroke="none" font-size="8pt" font-style="normal" font-weight="bold" text-anchor="middle" font-family="Verdana Arial Helvetica san-serif">15</text>
  <use xmlns:xlink="http://www.w3.org/1999/xlink" x="228" y="120" xlink:href="#IPD_SPort"/>
  <text x="216" y="126" fill="#000000" stroke="none" font-size="8pt" font-style="normal" font-weight="bold" text-anchor="middle" font-family="Verdana Arial Helvetica san-serif">16</text>
  <use xmlns:xlink="http://www.w3.org/1999/xlink" x="228" y="144" xlink:href="#IPD_SPort"/>
  <text x="216" y="150" fill="#000000" stroke="none" font-size="8pt" font-style="normal" font-weight="bold" text-anchor="middle" font-family="Verdana Arial Helvetica san-serif">22</text>
  <use xmlns:xlink="http://www.w3.org/1999/xlink" x="228" y="168" xlink:href="#IPD_SPort"/>
  <text x="216" y="174" fill="#000000" stroke="none" font-size="8pt" font-style="normal" font-weight="bold" text-anchor="middle" font-family="Verdana Arial Helvetica san-serif">24</text>
  <use xmlns:xlink="http://www.w3.org/1999/xlink" x="228" y="192" xlink:href="#IPD_SPort"/>
  <text x="216" y="198" fill="#000000" stroke="none" font-size="8pt" font-style="normal" font-weight="bold" text-anchor="middle" font-family="Verdana Arial Helvetica san-serif">25</text>
  <use xmlns:xlink="http://www.w3.org/1999/xlink" x="228" y="216" xlink:href="#IPD_SPort"/>
  <text x="216" y="222" fill="#000000" stroke="none" font-size="8pt" font-style="normal" font-weight="bold" text-anchor="middle" font-family="Verdana Arial Helvetica san-serif">26</text>
  <use xmlns:xlink="http://www.w3.org/1999/xlink" x="228" y="240" xlink:href="#IPD_SPort"/>
  <text x="216" y="246" fill="#000000" stroke="none" font-size="8pt" font-style="normal" font-weight="bold" text-anchor="middle" font-family="Verdana Arial Helvetica san-serif">27</text>
  <use xmlns:xlink="http://www.w3.org/1999/xlink" x="228" y="264" xlink:href="#IPD_SPort"/>
  <text x="216" y="270" fill="#000000" stroke="none" font-size="8pt" font-style="normal" font-weight="bold" text-anchor="middle" font-family="Verdana Arial Helvetica san-serif">28</text>
  <use xmlns:xlink="http://www.w3.org/1999/xlink" x="228" y="288" xlink:href="#IPD_SPort"/>
  <text x="216" y="294" fill="#000000" stroke="none" font-size="8pt" font-style="normal" font-weight="bold" text-anchor="middle" font-family="Verdana Arial Helvetica san-serif">31</text>
  <use xmlns:xlink="http://www.w3.org/1999/xlink" x="228" y="312" xlink:href="#IPD_SPort"/>
  <text x="216" y="318" fill="#000000" stroke="none" font-size="8pt" font-style="normal" font-weight="bold" text-anchor="middle" font-family="Verdana Arial Helvetica san-serif">33</text>
  <use xmlns:xlink="http://www.w3.org/1999/xlink" x="228" y="336" xlink:href="#IPD_SPort"/>
  <text x="216" y="342" fill="#000000" stroke="none" font-size="8pt" font-style="normal" font-weight="bold" text-anchor="middle" font-family="Verdana Arial Helvetica san-serif">34</text>
  <use xmlns:xlink="http://www.w3.org/1999/xlink" x="228" y="360" xlink:href="#IPD_SPort"/>
  <text x="216" y="366" fill="#000000" stroke="none" font-size="8pt" font-style="normal" font-weight="bold" text-anchor="middle" font-family="Verdana Arial Helvetica san-serif">35</text>
</svg>
